%YAML 1.1
%TAG !u! tag:unity3d.com,2011:
--- !u!1045 &1
EditorBuildSettings:
  m_ObjectHideFlags: 0
  serializedVersion: 2
  m_Scenes:
  - enabled: 1
    path: Assets/Scenes/Menu.unity
    guid: 937f7ac0d3de244b7abec02d806fb6d5
  - enabled: 1
    path: Assets/Scenes/LevelAutumn.unity
    guid: 2cda990e2423bbf4892e6590ba056729
  - enabled: 1
    path: Assets/Scenes/GameOver.unity
    guid: c69f352e7412f4846bb9a205b0360c88
  m_configObjects: {}
